<?xml version="1.0" encoding="UTF-8" standalone="no"?>
<!-- Created with Inkscape (http://www.inkscape.org/) -->

<svg
   xmlns:dc="http://purl.org/dc/elements/1.1/"
   xmlns:cc="http://creativecommons.org/ns#"
   xmlns:rdf="http://www.w3.org/1999/02/22-rdf-syntax-ns#"
   xmlns:svg="http://www.w3.org/2000/svg"
   xmlns="http://www.w3.org/2000/svg"
   xmlns:sodipodi="http://sodipodi.sourceforge.net/DTD/sodipodi-0.dtd"
   xmlns:inkscape="http://www.inkscape.org/namespaces/inkscape"
   width="9"
   height="8.2399416"
   id="svg2"
   version="1.1"
   inkscape:version="0.48.4 r9939"
   sodipodi:docname="PilNer.svg">
  <defs
     id="defs4" />
  <sodipodi:namedview
     id="base"
     pagecolor="#ffffff"
     bordercolor="#666666"
     borderopacity="1.0"
     inkscape:pageopacity="0"
     inkscape:pageshadow="2"
     inkscape:zoom="1.979899"
     inkscape:cx="72.575716"
     inkscape:cy="104.60674"
     inkscape:document-units="px"
     inkscape:current-layer="layer1"
     showgrid="false"
     fit-margin-left="0"
     fit-margin-top="0"
     fit-margin-right="0"
     fit-margin-bottom="0"
     inkscape:window-width="1075"
     inkscape:window-height="649"
     inkscape:window-x="732"
     inkscape:window-y="365"
     inkscape:window-maximized="0" />
  <metadata
     id="metadata7">
    <rdf:RDF>
      <cc:Work
         rdf:about="">
        <dc:format>image/svg+xml</dc:format>
        <dc:type
           rdf:resource="http://purl.org/dc/dcmitype/StillImage" />
        <dc:title />
      </cc:Work>
    </rdf:RDF>
  </metadata>
  <g
     inkscape:label="Layer 1"
     inkscape:groupmode="layer"
     id="layer1"
     transform="translate(-118.42263,-418.68763)">
    <path
       sodipodi:type="star"
       style="fill:#f9f9f9;fill-opacity:1;stroke:none"
       id="path2985"
       sodipodi:sides="3"
       sodipodi:cx="211.42857"
       sodipodi:cy="372.36218"
       sodipodi:r1="102.30008"
       sodipodi:r2="61.380047"
       sodipodi:arg1="0.94405343"
       sodipodi:arg2="1.991251"
       inkscape:flatsided="false"
       inkscape:rounded="0.15"
       inkscape:randomized="0"
       d="m 271.42857,455.21933 c -10.83497,7.84601 -72.84149,-21.36273 -85.05383,-26.82309 -12.21234,-5.46036 -75.3252,-32.19473 -76.70256,-45.5011 -1.37736,-13.30638 54.92142,-52.40123 65.7564,-60.24724 10.83497,-7.84602 65.54405,-49.13617 77.75638,-43.67581 12.21234,5.46035 17.92009,73.76395 19.29745,87.07032 1.37736,13.30638 9.78114,81.3309 -1.05384,89.17692 z"
       inkscape:transform-center-y="1.0603407"
       transform="matrix(0.04597668,0.02044729,0.02044729,-0.04597668,105.59278,434.57683)"
       inkscape:transform-center-x="-0.014592161" />
  </g>
</svg>
